FUNCTION_NAME()
{
    last_command="KUBECTL_COMMAND"
    commands=()

    flags=()
    two_word_flags=()
    local_nonpersistent_flags=()
    flags_with_completion=()
    flags_completion=()

    flags+=("--all-namespaces")
    local_nonpersistent_flags+=("--all-namespaces")
    flags+=("--filename=")
    flags_with_completion+=("--filename")
    flags_completion+=("__kubectl_handle_filename_extension_flag json|yaml|yml")
    two_word_flags+=("-f")
    flags_with_completion+=("-f")
    flags_completion+=("__kubectl_handle_filename_extension_flag json|yaml|yml")
    local_nonpersistent_flags+=("--filename=")
    flags+=("--include-uninitialized")
    local_nonpersistent_flags+=("--include-uninitialized")
    flags+=("--recursive")
    flags+=("-R")
    local_nonpersistent_flags+=("--recursive")
    flags+=("--selector=")
    two_word_flags+=("-l")
    local_nonpersistent_flags+=("--selector=")
    flags+=("--show-events")
    local_nonpersistent_flags+=("--show-events")
    flags+=("--alsologtostderr")
    flags+=("--as=")
    flags+=("--as-group=")
    flags+=("--cache-dir=")
    flags+=("--certificate-authority=")
    flags+=("--client-certificate=")
    flags+=("--client-key=")
    flags+=("--cluster=")
    flags_with_completion+=("--cluster")
    flags_completion+=("__kubectl_config_get_clusters")
    flags+=("--context=")
    flags_with_completion+=("--context")
    flags_completion+=("__kubectl_config_get_contexts")
    flags+=("--insecure-skip-tls-verify")
    flags+=("--kubeconfig=")
    flags+=("--log-backtrace-at=")
    flags+=("--log-dir=")
    flags+=("--log-file=")
    flags+=("--log-flush-frequency=")
    flags+=("--logtostderr")
    flags+=("--match-server-version")
    flags+=("--namespace=")
    flags_with_completion+=("--namespace")
    flags_completion+=("__kubectl_get_resource_namespace")
    two_word_flags+=("-n")
    flags_with_completion+=("-n")
    flags_completion+=("__kubectl_get_resource_namespace")
    flags+=("--profile=")
    flags+=("--profile-output=")
    flags+=("--request-timeout=")
    flags+=("--server=")
    two_word_flags+=("-s")
    flags+=("--skip-headers")
    flags+=("--stderrthreshold=")
    flags+=("--token=")
    flags+=("--user=")
    flags_with_completion+=("--user")
    flags_completion+=("__kubectl_config_get_users")
    flags+=("--v=")
    two_word_flags+=("-v")
    flags+=("--vmodule=")

    must_have_one_flag=()
    must_have_one_noun=()
    noun_aliases=()
}